Take-home Assignment #1
…
raw_middle_header <- raw_headers[17:27]

tidy_headers <- c( # fix headers
  rep(raw_middle_header[1:7], each = 2),
  "animal_total",
  rep(raw_middle_header[8:length(raw_middle_header)], each = 2),
  "non_animal_total",
  "country_total")

combined_colnames <- paste(tidy_headers, tidy_bottom_header, sep = ';') # create column names
colnames(table_content) <- c("Country", combined_colnames) # add column names
table_content_tbl <- as_tibble(table_content)
table_content_tbl

## # A tibble: 130 x 26
##    Country `Pork;Supplied ~ `Pork;Kg CO2/pe~ `Poultry;Suppli~ `Poultry;Kg CO2~
##    <chr>   <chr>            <chr>            <chr>            <chr>           
##  1 Argent~ 10.51            37.20            38.66            41.53           
##  2 Austra~ 24.14            85.44            46.12            49.54           
##  3 Albania 10.88            38.51            13.23            14.21           
##  4 Iceland 21.69            76.77            26.87            28.86           
##  5 New Ze~ 22.29            78.90            34.98            37.58           
##  6 USA     27.64            97.83            50.01            53.72           
##  7 Uruguay 16.84            59.61            27.45            29.49           
##  8 Luxemb~ 43.58            154.25           21.37            22.96           
##  9 Brazil  12.60            44.60            45.00            48.34           
## 10 Kazakh~ 10.36            36.67            18.38            19.74           
## # ... with 120 more rows, and 21 more variables: `Beef;Supplied for Consumption
## #   (kg/person/year)` <chr>, `Beef;Kg CO2/person/year` <chr>, `Lamb &
## #   Goat;Supplied for Consumption (kg/person/year)` <chr>, `Lamb & Goat;Kg
## #   CO2/person/year` <chr>, `Fish;Supplied for Consumption
## #   (kg/person/year)` <chr>, `Fish;Kg CO2/person/year` <chr>, `Eggs;Supplied
## #   for Consumption (kg/person/year)` <chr>, `Eggs;Kg CO2/person/year` <chr>,
## #   `Milk - inc. cheese;Supplied for Consumption (kg/person/year)` <chr>, `Milk
## #   - inc. cheese;Kg CO2/person/year` <chr>, `animal_total;Kg
## #   CO2/person/year` <chr>, `Wheat and Wheat Products;Supplied for Consumption
…
tidy_table <- long_table %>%
   pivot_wider(names_from = Metric, values_from = Values) # splits metric variables into consumption and emmission

final_table <- tidy_table %>%
 rename(consumption = `Supplied for Consumption (kg/person/year)`,
        co2_emmission = `Kg CO2/person/year`,
        country = Country,
        food_category = `Food Category`) %>%
 drop_na() # drops all NAs, important because we want to get rid of the emmission sum entries of each country 

head(final_table, 40)

## # A tibble: 40 x 4
##    country   food_category            consumption co2_emmission
##    <chr>     <chr>                    <chr>       <chr>        
##  1 Argentina Pork                     10.51       37.20        
##  2 Argentina Poultry                  38.66       41.53        
##  3 Argentina Beef                     55.48       1712.00      
##  4 Argentina Lamb & Goat              1.56        54.63        
##  5 Argentina Fish                     4.36        6.96         
##  6 Argentina Eggs                     11.39       10.46        
##  7 Argentina Milk - inc. cheese       195.08      277.87       
##  8 Argentina Wheat and Wheat Products 103.11      19.66        
##  9 Argentina Rice                     8.77        11.22        
## 10 Argentina Soybeans                 0.00        0.00         
## # ... with 30 more rows
…
